#IN           1   1   0   0   500.000000     0.000000    -0.072500   499.999995   0.00100   0.00100      0.00100
#IN           2   1   0   0   500.000000     0.000000    -0.072500  -499.999995   0.00100   0.00100      0.00100
     1           2  1  0  0    500.000000   2.02611   0.00100  -2.02611  -13980.050       0.000  0.000000000 -0.000145000 -0.999999989
     1           1  1  0  0    500.000000   2.02611   0.00100  -2.02611   13980.050       0.000  0.000000000 -0.000145000  0.999999989
 
#IN         101   1   0   0   500.000000     0.000000    -0.072500   499.999995   0.00100   0.00100      0.00100
#IN         102   1   0   0   500.000000     0.000000    -0.072500  -499.999995   0.00100   0.00100      0.00100
     2         102  1  0  0    500.000000   2.02611   0.00100  -2.02611  -13980.050       0.000  0.000000000 -0.000145000 -0.999999989
     2         101  1  0  0    500.000000   2.02611   0.00100  -2.02611   13980.050       0.000  0.000000000 -0.000145000  0.999999989
 
#IN         201   1   0   0   500.000000     0.000000    -0.072500   499.999995   0.00100   0.00100      0.00100
#IN         202   1   0   0   500.000000     0.000000    -0.072500  -499.999995   0.00100   0.00100      0.00100
     3         202  1  0  0    500.000000   2.02611   0.00100  -2.02611  -13980.050       0.000  0.000000000 -0.000145000 -0.999999989
     3         201  1  0  0    500.000000   2.02611   0.00100  -2.02611   13980.050       0.000  0.000000000 -0.000145000  0.999999989
 
#IN         301   1   0   0   500.000000     0.000000    -0.072500   499.999995   0.00100   0.00100      0.00100
#IN         302   1   0   0   500.000000     0.000000    -0.072500  -499.999995   0.00100   0.00100      0.00100
     4         302  1  0  0    500.000000   2.02611   0.00100  -2.02611  -13980.050       0.000  0.000000000 -0.000145000 -0.999999989
     4         301  1  0  0    500.000000   2.02611   0.00100  -2.02611   13980.050       0.000  0.000000000 -0.000145000  0.999999989
 
#IN         401   1   0   0   500.000000     0.000000    -0.072500   499.999995   0.00100   0.00100      0.00100
#IN         402   1   0   0   500.000000     0.000000    -0.072500  -499.999995   0.00100   0.00100      0.00100
     5         402  1  0  0    500.000000   2.02611   0.00100  -2.02611  -13980.050       0.000  0.000000000 -0.000145000 -0.999999989
     5         401  1  0  0    500.000000   2.02611   0.00100  -2.02611   13980.050       0.000  0.000000000 -0.000145000  0.999999989
 
#IN         501   1   0   0   500.000000     0.000000    -0.072500   499.999995   0.00100   0.00100      0.00100
#IN         502   1   0   0   500.000000     0.000000    -0.072500  -499.999995   0.00100   0.00100      0.00100
     6         502  1  0  0    500.000000   2.02611   0.00100  -2.02611  -13980.050       0.000  0.000000000 -0.000145000 -0.999999989
     6         501  1  0  0    500.000000   2.02611   0.00100  -2.02611   13980.050       0.000  0.000000000 -0.000145000  0.999999989
 
#IN         601   1   0   0   500.000000     0.000000    -0.072500   499.999995   0.00100   0.00100      0.00100
#IN         602   1   0   0   500.000000     0.000000    -0.072500  -499.999995   0.00100   0.00100      0.00100
     7         602  1  0  0    500.000000   2.02611   0.00100  -2.02611  -13980.050       0.000  0.000000000 -0.000145000 -0.999999989
     7         601  1  0  0    500.000000   2.02611   0.00100  -2.02611   13980.050       0.000  0.000000000 -0.000145000  0.999999989
 
#IN         701   1   0   0   500.000000     0.000000    -0.072500   499.999995   0.00100   0.00100      0.00100
#IN         702   1   0   0   500.000000     0.000000    -0.072500  -499.999995   0.00100   0.00100      0.00100
     8         702  1  0  0    500.000000   2.02611   0.00100  -2.02611  -13980.050       0.000  0.000000000 -0.000145000 -0.999999989
     8         701  1  0  0    500.000000   2.02611   0.00100  -2.02611   13980.050       0.000  0.000000000 -0.000145000  0.999999989
 
#IN         801   1   0   0   500.000000     0.000000    -0.072500   499.999995   0.00100   0.00100      0.00100
#IN         802   1   0   0   500.000000     0.000000    -0.072500  -499.999995   0.00100   0.00100      0.00100
     9         802  1  0  0    500.000000   2.02611   0.00100  -2.02611  -13980.050       0.000  0.000000000 -0.000145000 -0.999999989
     9         801  1  0  0    500.000000   2.02611   0.00100  -2.02611   13980.050       0.000  0.000000000 -0.000145000  0.999999989
 
#IN         901   1   0   0   500.000000     0.000000    -0.072500   499.999995   0.00100   0.00100      0.00100
#IN         902   1   0   0   500.000000     0.000000    -0.072500  -499.999995   0.00100   0.00100      0.00100
    10         902  1  0  0    500.000000   2.02611   0.00100  -2.02611  -13980.050       0.000  0.000000000 -0.000145000 -0.999999989
    10         901  1  0  0    500.000000   2.02611   0.00100  -2.02611   13980.050       0.000  0.000000000 -0.000145000  0.999999989
 
#IN        1001   1   0   0   500.000000     0.000000    -0.072500   499.999995   0.00100   0.00100      0.00100
#IN        1002   1   0   0   500.000000     0.000000    -0.072500  -499.999995   0.00100   0.00100      0.00100
    11        1002  1  0  0    500.000000   2.02611   0.00100  -2.02611  -13980.050       0.000  0.000000000 -0.000145000 -0.999999989
    11        1001  1  0  0    500.000000   2.02611   0.00100  -2.02611   13980.050       0.000  0.000000000 -0.000145000  0.999999989
 
#IN        1101   1   0   0   500.000000     0.000000    -0.072500   499.999995   0.00100   0.00100      0.00100
#IN        1102   1   0   0   500.000000     0.000000    -0.072500  -499.999995   0.00100   0.00100      0.00100
    12        1102  1  0  0    500.000000   2.02611   0.00100  -2.02611  -13980.050       0.000  0.000000000 -0.000145000 -0.999999989
    12        1101  1  0  0    500.000000   2.02611   0.00100  -2.02611   13980.050       0.000  0.000000000 -0.000145000  0.999999989
 
#IN        1201   1   0   0   500.000000     0.000000    -0.072500   499.999995   0.00100   0.00100      0.00100
#IN        1202   1   0   0   500.000000     0.000000    -0.072500  -499.999995   0.00100   0.00100      0.00100
    13        1202  1  0  0    500.000000   2.02611   0.00100  -2.02611  -13980.050       0.000  0.000000000 -0.000145000 -0.999999989
    13        1201  1  0  0    500.000000   2.02611   0.00100  -2.02611   13980.050       0.000  0.000000000 -0.000145000  0.999999989
 
#IN        1301   1   0   0   500.000000     0.000000    -0.072500   499.999995   0.00100   0.00100      0.00100
#IN        1302   1   0   0   500.000000     0.000000    -0.072500  -499.999995   0.00100   0.00100      0.00100
    14        1302  1  0  0    500.000000   2.02611   0.00100  -2.02611  -13980.050       0.000  0.000000000 -0.000145000 -0.999999989
    14        1301  1  0  0    500.000000   2.02611   0.00100  -2.02611   13980.050       0.000  0.000000000 -0.000145000  0.999999989
 
#IN        1401   1   0   0   500.000000     0.000000    -0.072500   499.999995   0.00100   0.00100      0.00100
#IN        1402   1   0   0   500.000000     0.000000    -0.072500  -499.999995   0.00100   0.00100      0.00100
    15        1402  1  0  0    500.000000   2.02611   0.00100  -2.02611  -13980.050       0.000  0.000000000 -0.000145000 -0.999999989
    15        1401  1  0  0    500.000000   2.02611   0.00100  -2.02611   13980.050       0.000  0.000000000 -0.000145000  0.999999989
 
#IN        1501   1   0   0   500.000000     0.000000    -0.072500   499.999995   0.00100   0.00100      0.00100
#IN        1502   1   0   0   500.000000     0.000000    -0.072500  -499.999995   0.00100   0.00100      0.00100
    16        1502  1  0  0    500.000000   2.02611   0.00100  -2.02611  -13980.050       0.000  0.000000000 -0.000145000 -0.999999989
    16        1501  1  0  0    500.000000   2.02611   0.00100  -2.02611   13980.050       0.000  0.000000000 -0.000145000  0.999999989
 
#IN        1601   1   0   0   500.000000     0.000000    -0.072500   499.999995   0.00100   0.00100      0.00100
#IN        1602   1   0   0   500.000000     0.000000    -0.072500  -499.999995   0.00100   0.00100      0.00100
    17        1602  1  0  0    500.000000   2.02611   0.00100  -2.02611  -13980.050       0.000  0.000000000 -0.000145000 -0.999999989
    17        1601  1  0  0    500.000000   2.02611   0.00100  -2.02611   13980.050       0.000  0.000000000 -0.000145000  0.999999989
 
#IN        1701   1   0   0   500.000000     0.000000    -0.072500   499.999995   0.00100   0.00100      0.00100
#IN        1702   1   0   0   500.000000     0.000000    -0.072500  -499.999995   0.00100   0.00100      0.00100
    18        1702  1  0  0    500.000000   2.02611   0.00100  -2.02611  -13980.050       0.000  0.000000000 -0.000145000 -0.999999989
    18        1701  1  0  0    500.000000   2.02611   0.00100  -2.02611   13980.050       0.000  0.000000000 -0.000145000  0.999999989
 
#IN        1801   1   0   0   500.000000     0.000000    -0.072500   499.999995   0.00100   0.00100      0.00100
#IN        1802   1   0   0   500.000000     0.000000    -0.072500  -499.999995   0.00100   0.00100      0.00100
    19        1802  1  0  0    500.000000   2.02611   0.00100  -2.02611  -13980.050       0.000  0.000000000 -0.000145000 -0.999999989
    19        1801  1  0  0    500.000000   2.02611   0.00100  -2.02611   13980.050       0.000  0.000000000 -0.000145000  0.999999989
 
#IN        1901   1   0   0   500.000000     0.000000    -0.072500   499.999995   0.00100   0.00100      0.00100
#IN        1902   1   0   0   500.000000     0.000000    -0.072500  -499.999995   0.00100   0.00100      0.00100
    20        1902  1  0  0    500.000000   2.02611   0.00100  -2.02611  -13980.050       0.000  0.000000000 -0.000145000 -0.999999989
    20        1901  1  0  0    500.000000   2.02611   0.00100  -2.02611   13980.050       0.000  0.000000000 -0.000145000  0.999999989
 
#IN        2001   1   0   0   500.000000     0.000000    -0.072500   499.999995   0.00100   0.00100      0.00100
#IN        2002   1   0   0   500.000000     0.000000    -0.072500  -499.999995   0.00100   0.00100      0.00100
    21        2002  1  0  0    500.000000   2.02611   0.00100  -2.02611  -13980.050       0.000  0.000000000 -0.000145000 -0.999999989
    21        2001  1  0  0    500.000000   2.02611   0.00100  -2.02611   13980.050       0.000  0.000000000 -0.000145000  0.999999989
 
#IN        2101   1   0   0   500.000000     0.000000    -0.072500   499.999995   0.00100   0.00100      0.00100
#IN        2102   1   0   0   500.000000     0.000000    -0.072500  -499.999995   0.00100   0.00100      0.00100
    22        2102  1  0  0    500.000000   2.02611   0.00100  -2.02611  -13980.050       0.000  0.000000000 -0.000145000 -0.999999989
    22        2101  1  0  0    500.000000   2.02611   0.00100  -2.02611   13980.050       0.000  0.000000000 -0.000145000  0.999999989
 
#IN        2201   1   0   0   500.000000     0.000000    -0.072500   499.999995   0.00100   0.00100      0.00100
#IN        2202   1   0   0   500.000000     0.000000    -0.072500  -499.999995   0.00100   0.00100      0.00100
    23        2202  1  0  0    500.000000   2.02611   0.00100  -2.02611  -13980.050       0.000  0.000000000 -0.000145000 -0.999999989
    23        2201  1  0  0    500.000000   2.02611   0.00100  -2.02611   13980.050       0.000  0.000000000 -0.000145000  0.999999989
 
#IN        2301   1   0   0   500.000000     0.000000    -0.072500   499.999995   0.00100   0.00100      0.00100
#IN        2302   1   0   0   500.000000     0.000000    -0.072500  -499.999995   0.00100   0.00100      0.00100
    24        2302  1  0  0    500.000000   2.02611   0.00100  -2.02611  -13980.050       0.000  0.000000000 -0.000145000 -0.999999989
    24        2301  1  0  0    500.000000   2.02611   0.00100  -2.02611   13980.050       0.000  0.000000000 -0.000145000  0.999999989
 
#IN        2401   1   0   0   500.000000     0.000000    -0.072500   499.999995   0.00100   0.00100      0.00100
#IN        2402   1   0   0   500.000000     0.000000    -0.072500  -499.999995   0.00100   0.00100      0.00100
    25        2402  1  0  0    500.000000   2.02611   0.00100  -2.02611  -13980.050       0.000  0.000000000 -0.000145000 -0.999999989
    25        2401  1  0  0    500.000000   2.02611   0.00100  -2.02611   13980.050       0.000  0.000000000 -0.000145000  0.999999989
 
#IN        2501   1   0   0   500.000000     0.000000    -0.072500   499.999995   0.00100   0.00100      0.00100
#IN        2502   1   0   0   500.000000     0.000000    -0.072500  -499.999995   0.00100   0.00100      0.00100
    26        2502  1  0  0    500.000000   2.02611   0.00100  -2.02611  -13980.050       0.000  0.000000000 -0.000145000 -0.999999989
    26        2501  1  0  0    500.000000   2.02611   0.00100  -2.02611   13980.050       0.000  0.000000000 -0.000145000  0.999999989
 
#IN        2601   1   0   0   500.000000     0.000000    -0.072500   499.999995   0.00100   0.00100      0.00100
#IN        2602   1   0   0   500.000000     0.000000    -0.072500  -499.999995   0.00100   0.00100      0.00100
    27        2602  1  0  0    500.000000   2.02611   0.00100  -2.02611  -13980.050       0.000  0.000000000 -0.000145000 -0.999999989
    27        2601  1  0  0    500.000000   2.02611   0.00100  -2.02611   13980.050       0.000  0.000000000 -0.000145000  0.999999989
 
#IN        2701   1   0   0   500.000000     0.000000    -0.072500   499.999995   0.00100   0.00100      0.00100
#IN        2702   1   0   0   500.000000     0.000000    -0.072500  -499.999995   0.00100   0.00100      0.00100
    28        2702  1  0  0    500.000000   2.02611   0.00100  -2.02611  -13980.050       0.000  0.000000000 -0.000145000 -0.999999989
    28        2701  1  0  0    500.000000   2.02611   0.00100  -2.02611   13980.050       0.000  0.000000000 -0.000145000  0.999999989
 
#IN        2801   1   0   0   500.000000     0.000000    -0.072500   499.999995   0.00100   0.00100      0.00100
#IN        2802   1   0   0   500.000000     0.000000    -0.072500  -499.999995   0.00100   0.00100      0.00100
    29        2802  1  0  0    500.000000   2.02611   0.00100  -2.02611  -13980.050       0.000  0.000000000 -0.000145000 -0.999999989
    29        2801  1  0  0    500.000000   2.02611   0.00100  -2.02611   13980.050       0.000  0.000000000 -0.000145000  0.999999989
 
#IN        2901   1   0   0   500.000000     0.000000    -0.072500   499.999995   0.00100   0.00100      0.00100
#IN        2902   1   0   0   500.000000     0.000000    -0.072500  -499.999995   0.00100   0.00100      0.00100
    30        2902  1  0  0    500.000000   2.02611   0.00100  -2.02611  -13980.050       0.000  0.000000000 -0.000145000 -0.999999989
    30        2901  1  0  0    500.000000   2.02611   0.00100  -2.02611   13980.050       0.000  0.000000000 -0.000145000  0.999999989
 
#IN        3001   1   0   0   500.000000     0.000000    -0.072500   499.999995   0.00100   0.00100      0.00100
#IN        3002   1   0   0   500.000000     0.000000    -0.072500  -499.999995   0.00100   0.00100      0.00100
    31        3002  1  0  0    500.000000   2.02611   0.00100  -2.02611  -13980.050       0.000  0.000000000 -0.000145000 -0.999999989
    31        3001  1  0  0    500.000000   2.02611   0.00100  -2.02611   13980.050       0.000  0.000000000 -0.000145000  0.999999989
 
#IN        3101   1   0   0   500.000000     0.000000    -0.072500   499.999995   0.00100   0.00100      0.00100
#IN        3102   1   0   0   500.000000     0.000000    -0.072500  -499.999995   0.00100   0.00100      0.00100
    32        3102  1  0  0    500.000000   2.02611   0.00100  -2.02611  -13980.050       0.000  0.000000000 -0.000145000 -0.999999989
    32        3101  1  0  0    500.000000   2.02611   0.00100  -2.02611   13980.050       0.000  0.000000000 -0.000145000  0.999999989
 
#IN        3201   1   0   0   500.000000     0.000000    -0.072500   499.999995   0.00100   0.00100      0.00100
#IN        3202   1   0   0   500.000000     0.000000    -0.072500  -499.999995   0.00100   0.00100      0.00100
    33        3202  1  0  0    500.000000   2.02611   0.00100  -2.02611  -13980.050       0.000  0.000000000 -0.000145000 -0.999999989
    33        3201  1  0  0    500.000000   2.02611   0.00100  -2.02611   13980.050       0.000  0.000000000 -0.000145000  0.999999989
 
#IN        3301   1   0   0   500.000000     0.000000    -0.072500   499.999995   0.00100   0.00100      0.00100
#IN        3302   1   0   0   500.000000     0.000000    -0.072500  -499.999995   0.00100   0.00100      0.00100
    34        3302  1  0  0    500.000000   2.02611   0.00100  -2.02611  -13980.050       0.000  0.000000000 -0.000145000 -0.999999989
    34        3301  1  0  0    500.000000   2.02611   0.00100  -2.02611   13980.050       0.000  0.000000000 -0.000145000  0.999999989
 
#IN        3401   1   0   0   500.000000     0.000000    -0.072500   499.999995   0.00100   0.00100      0.00100
#IN        3402   1   0   0   500.000000     0.000000    -0.072500  -499.999995   0.00100   0.00100      0.00100
    35        3402  1  0  0    500.000000   2.02611   0.00100  -2.02611  -13980.050       0.000  0.000000000 -0.000145000 -0.999999989
    35        3401  1  0  0    500.000000   2.02611   0.00100  -2.02611   13980.050       0.000  0.000000000 -0.000145000  0.999999989
 
#IN        3501   1   0   0   500.000000     0.000000    -0.072500   499.999995   0.00100   0.00100      0.00100
#IN        3502   1   0   0   500.000000     0.000000    -0.072500  -499.999995   0.00100   0.00100      0.00100
    36        3502  1  0  0    500.000000   2.02611   0.00100  -2.02611  -13980.050       0.000  0.000000000 -0.000145000 -0.999999989
    36        3501  1  0  0    500.000000   2.02611   0.00100  -2.02611   13980.050       0.000  0.000000000 -0.000145000  0.999999989
 
#IN        3601   1   0   0   500.000000     0.000000    -0.072500   499.999995   0.00100   0.00100      0.00100
#IN        3602   1   0   0   500.000000     0.000000    -0.072500  -499.999995   0.00100   0.00100      0.00100
    37        3602  1  0  0    500.000000   2.02611   0.00100  -2.02611  -13980.050       0.000  0.000000000 -0.000145000 -0.999999989
    37        3601  1  0  0    500.000000   2.02611   0.00100  -2.02611   13980.050       0.000  0.000000000 -0.000145000  0.999999989
 
#IN        3701   1   0   0   500.000000     0.000000    -0.072500   499.999995   0.00100   0.00100      0.00100
#IN        3702   1   0   0   500.000000     0.000000    -0.072500  -499.999995   0.00100   0.00100      0.00100
    38        3702  1  0  0    500.000000   2.02611   0.00100  -2.02611  -13980.050       0.000  0.000000000 -0.000145000 -0.999999989
    38        3701  1  0  0    500.000000   2.02611   0.00100  -2.02611   13980.050       0.000  0.000000000 -0.000145000  0.999999989
 
#IN        3801   1   0   0   500.000000     0.000000    -0.072500   499.999995   0.00100   0.00100      0.00100
#IN        3802   1   0   0   500.000000     0.000000    -0.072500  -499.999995   0.00100   0.00100      0.00100
    39        3802  1  0  0    500.000000   2.02611   0.00100  -2.02611  -13980.050       0.000  0.000000000 -0.000145000 -0.999999989
    39        3801  1  0  0    500.000000   2.02611   0.00100  -2.02611   13980.050       0.000  0.000000000 -0.000145000  0.999999989
 
#IN        3901   1   0   0   500.000000     0.000000    -0.072500   499.999995   0.00100   0.00100      0.00100
#IN        3902   1   0   0   500.000000     0.000000    -0.072500  -499.999995   0.00100   0.00100      0.00100
    40        3902  1  0  0    500.000000   2.02611   0.00100  -2.02611  -13980.050       0.000  0.000000000 -0.000145000 -0.999999989
    40        3901  1  0  0    500.000000   2.02611   0.00100  -2.02611   13980.050       0.000  0.000000000 -0.000145000  0.999999989
 
#IN        4001   1   0   0   500.000000     0.000000    -0.072500   499.999995   0.00100   0.00100      0.00100
#IN        4002   1   0   0   500.000000     0.000000    -0.072500  -499.999995   0.00100   0.00100      0.00100
    41        4002  1  0  0    500.000000   2.02611   0.00100  -2.02611  -13980.050       0.000  0.000000000 -0.000145000 -0.999999989
    41        4001  1  0  0    500.000000   2.02611   0.00100  -2.02611   13980.050       0.000  0.000000000 -0.000145000  0.999999989
 
#IN        4101   1   0   0   500.000000     0.000000    -0.072500   499.999995   0.00100   0.00100      0.00100
#IN        4102   1   0   0   500.000000     0.000000    -0.072500  -499.999995   0.00100   0.00100      0.00100
    42        4102  1  0  0    500.000000   2.02611   0.00100  -2.02611  -13980.050       0.000  0.000000000 -0.000145000 -0.999999989
    42        4101  1  0  0    500.000000   2.02611   0.00100  -2.02611   13980.050       0.000  0.000000000 -0.000145000  0.999999989
 
#IN        4201   1   0   0   500.000000     0.000000    -0.072500   499.999995   0.00100   0.00100      0.00100
#IN        4202   1   0   0   500.000000     0.000000    -0.072500  -499.999995   0.00100   0.00100      0.00100
    43        4202  1  0  0    500.000000   2.02611   0.00100  -2.02611  -13980.050       0.000  0.000000000 -0.000145000 -0.999999989
    43        4201  1  0  0    500.000000   2.02611   0.00100  -2.02611   13980.050       0.000  0.000000000 -0.000145000  0.999999989
 
#IN        4301   1   0   0   500.000000     0.000000    -0.072500   499.999995   0.00100   0.00100      0.00100
#IN        4302   1   0   0   500.000000     0.000000    -0.072500  -499.999995   0.00100   0.00100      0.00100
    44        4302  1  0  0    500.000000   2.02611   0.00100  -2.02611  -13980.050       0.000  0.000000000 -0.000145000 -0.999999989
    44        4301  1  0  0    500.000000   2.02611   0.00100  -2.02611   13980.050       0.000  0.000000000 -0.000145000  0.999999989
 
#IN        4401   1   0   0   500.000000     0.000000    -0.072500   499.999995   0.00100   0.00100      0.00100
#IN        4402   1   0   0   500.000000     0.000000    -0.072500  -499.999995   0.00100   0.00100      0.00100
    45        4402  1  0  0    500.000000   2.02611   0.00100  -2.02611  -13980.050       0.000  0.000000000 -0.000145000 -0.999999989
    45        4401  1  0  0    500.000000   2.02611   0.00100  -2.02611   13980.050       0.000  0.000000000 -0.000145000  0.999999989
 
#IN        4501   1   0   0   500.000000     0.000000    -0.072500   499.999995   0.00100   0.00100      0.00100
#IN        4502   1   0   0   500.000000     0.000000    -0.072500  -499.999995   0.00100   0.00100      0.00100
    46        4502  1  0  0    500.000000   2.02611   0.00100  -2.02611  -13980.050       0.000  0.000000000 -0.000145000 -0.999999989
    46        4501  1  0  0    500.000000   2.02611   0.00100  -2.02611   13980.050       0.000  0.000000000 -0.000145000  0.999999989
 
#IN        4601   1   0   0   500.000000     0.000000    -0.072500   499.999995   0.00100   0.00100      0.00100
#IN        4602   1   0   0   500.000000     0.000000    -0.072500  -499.999995   0.00100   0.00100      0.00100
    47        4602  1  0  0    500.000000   2.02611   0.00100  -2.02611  -13980.050       0.000  0.000000000 -0.000145000 -0.999999989
    47        4601  1  0  0    500.000000   2.02611   0.00100  -2.02611   13980.050       0.000  0.000000000 -0.000145000  0.999999989
 
#IN        4701   1   0   0   500.000000     0.000000    -0.072500   499.999995   0.00100   0.00100      0.00100
#IN        4702   1   0   0   500.000000     0.000000    -0.072500  -499.999995   0.00100   0.00100      0.00100
    48        4702  1  0  0    500.000000   2.02611   0.00100  -2.02611  -13980.050       0.000  0.000000000 -0.000145000 -0.999999989
    48        4701  1  0  0    500.000000   2.02611   0.00100  -2.02611   13980.050       0.000  0.000000000 -0.000145000  0.999999989
 
#IN        4801   1   0   0   500.000000     0.000000    -0.072500   499.999995   0.00100   0.00100      0.00100
#IN        4802   1   0   0   500.000000     0.000000    -0.072500  -499.999995   0.00100   0.00100      0.00100
    49        4802  1  0  0    500.000000   2.02611   0.00100  -2.02611  -13980.050       0.000  0.000000000 -0.000145000 -0.999999989
    49        4801  1  0  0    500.000000   2.02611   0.00100  -2.02611   13980.050       0.000  0.000000000 -0.000145000  0.999999989
 
#IN        4901   1   0   0   500.000000     0.000000    -0.072500   499.999995   0.00100   0.00100      0.00100
#IN        4902   1   0   0   500.000000     0.000000    -0.072500  -499.999995   0.00100   0.00100      0.00100
    50        4902  1  0  0    500.000000   2.02611   0.00100  -2.02611  -13980.050       0.000  0.000000000 -0.000145000 -0.999999989
    50        4901  1  0  0    500.000000   2.02611   0.00100  -2.02611   13980.050       0.000  0.000000000 -0.000145000  0.999999989
 
#IN        5001   1   0   0   500.000000     0.000000    -0.072500   499.999995   0.00100   0.00100      0.00100
#IN        5002   1   0   0   500.000000     0.000000    -0.072500  -499.999995   0.00100   0.00100      0.00100
    51        5002  1  0  0    500.000000   2.02611   0.00100  -2.02611  -13980.050       0.000  0.000000000 -0.000145000 -0.999999989
    51        5001  1  0  0    500.000000   2.02611   0.00100  -2.02611   13980.050       0.000  0.000000000 -0.000145000  0.999999989
 
#IN        5101   1   0   0   500.000000     0.000000    -0.072500   499.999995   0.00100   0.00100      0.00100
#IN        5102   1   0   0   500.000000     0.000000    -0.072500  -499.999995   0.00100   0.00100      0.00100
    52        5102  1  0  0    500.000000   2.02611   0.00100  -2.02611  -13980.050       0.000  0.000000000 -0.000145000 -0.999999989
    52        5101  1  0  0    500.000000   2.02611   0.00100  -2.02611   13980.050       0.000  0.000000000 -0.000145000  0.999999989
 
#IN        5201   1   0   0   500.000000     0.000000    -0.072500   499.999995   0.00100   0.00100      0.00100
#IN        5202   1   0   0   500.000000     0.000000    -0.072500  -499.999995   0.00100   0.00100      0.00100
    53        5202  1  0  0    500.000000   2.02611   0.00100  -2.02611  -13980.050       0.000  0.000000000 -0.000145000 -0.999999989
    53        5201  1  0  0    500.000000   2.02611   0.00100  -2.02611   13980.050       0.000  0.000000000 -0.000145000  0.999999989
 
#IN        5301   1   0   0   500.000000     0.000000    -0.072500   499.999995   0.00100   0.00100      0.00100
#IN        5302   1   0   0   500.000000     0.000000    -0.072500  -499.999995   0.00100   0.00100      0.00100
    54        5302  1  0  0    500.000000   2.02611   0.00100  -2.02611  -13980.050       0.000  0.000000000 -0.000145000 -0.999999989
    54        5301  1  0  0    500.000000   2.02611   0.00100  -2.02611   13980.050       0.000  0.000000000 -0.000145000  0.999999989
 
#IN        5401   1   0   0   500.000000     0.000000    -0.072500   499.999995   0.00100   0.00100      0.00100
#IN        5402   1   0   0   500.000000     0.000000    -0.072500  -499.999995   0.00100   0.00100      0.00100
    55        5402  1  0  0    500.000000   2.02611   0.00100  -2.02611  -13980.050       0.000  0.000000000 -0.000145000 -0.999999989
    55        5401  1  0  0    500.000000   2.02611   0.00100  -2.02611   13980.050       0.000  0.000000000 -0.000145000  0.999999989
 
#IN        5501   1   0   0   500.000000     0.000000    -0.072500   499.999995   0.00100   0.00100      0.00100
#IN        5502   1   0   0   500.000000     0.000000    -0.072500  -499.999995   0.00100   0.00100      0.00100
    56        5502  1  0  0    500.000000   2.02611   0.00100  -2.02611  -13980.050       0.000  0.000000000 -0.000145000 -0.999999989
    56        5501  1  0  0    500.000000   2.02611   0.00100  -2.02611   13980.050       0.000  0.000000000 -0.000145000  0.999999989
 
#IN        5601   1   0   0   500.000000     0.000000    -0.072500   499.999995   0.00100   0.00100      0.00100
#IN        5602   1   0   0   500.000000     0.000000    -0.072500  -499.999995   0.00100   0.00100      0.00100
    57        5602  1  0  0    500.000000   2.02611   0.00100  -2.02611  -13980.050       0.000  0.000000000 -0.000145000 -0.999999989
    57        5601  1  0  0    500.000000   2.02611   0.00100  -2.02611   13980.050       0.000  0.000000000 -0.000145000  0.999999989
 
#IN        5701   1   0   0   500.000000     0.000000    -0.072500   499.999995   0.00100   0.00100      0.00100
#IN        5702   1   0   0   500.000000     0.000000    -0.072500  -499.999995   0.00100   0.00100      0.00100
    58        5702  1  0  0    500.000000   2.02611   0.00100  -2.02611  -13980.050       0.000  0.000000000 -0.000145000 -0.999999989
    58        5701  1  0  0    500.000000   2.02611   0.00100  -2.02611   13980.050       0.000  0.000000000 -0.000145000  0.999999989
 
#IN        5801   1   0   0   500.000000     0.000000    -0.072500   499.999995   0.00100   0.00100      0.00100
#IN        5802   1   0   0   500.000000     0.000000    -0.072500  -499.999995   0.00100   0.00100      0.00100
    59        5802  1  0  0    500.000000   2.02611   0.00100  -2.02611  -13980.050       0.000  0.000000000 -0.000145000 -0.999999989
    59        5801  1  0  0    500.000000   2.02611   0.00100  -2.02611   13980.050       0.000  0.000000000 -0.000145000  0.999999989
 
#IN        5901   1   0   0   500.000000     0.000000    -0.072500   499.999995   0.00100   0.00100      0.00100
#IN        5902   1   0   0   500.000000     0.000000    -0.072500  -499.999995   0.00100   0.00100      0.00100
    60        5902  1  0  0    500.000000   2.02611   0.00100  -2.02611  -13980.050       0.000  0.000000000 -0.000145000 -0.999999989
    60        5901  1  0  0    500.000000   2.02611   0.00100  -2.02611   13980.050       0.000  0.000000000 -0.000145000  0.999999989
 
#IN        6001   1   0   0   500.000000     0.000000    -0.072500   499.999995   0.00100   0.00100      0.00100
#IN        6002   1   0   0   500.000000     0.000000    -0.072500  -499.999995   0.00100   0.00100      0.00100
    61        6002  1  0  0    500.000000   2.02611   0.00100  -2.02611  -13980.050       0.000  0.000000000 -0.000145000 -0.999999989
    61        6001  1  0  0    500.000000   2.02611   0.00100  -2.02611   13980.050       0.000  0.000000000 -0.000145000  0.999999989
 
#IN        6101   1   0   0   500.000000     0.000000    -0.072500   499.999995   0.00100   0.00100      0.00100
#IN        6102   1   0   0   500.000000     0.000000    -0.072500  -499.999995   0.00100   0.00100      0.00100
    62        6102  1  0  0    500.000000   2.02611   0.00100  -2.02611  -13980.050       0.000  0.000000000 -0.000145000 -0.999999989
    62        6101  1  0  0    500.000000   2.02611   0.00100  -2.02611   13980.050       0.000  0.000000000 -0.000145000  0.999999989
 
#IN        6201   1   0   0   500.000000     0.000000    -0.072500   499.999995   0.00100   0.00100      0.00100
#IN        6202   1   0   0   500.000000     0.000000    -0.072500  -499.999995   0.00100   0.00100      0.00100
    63        6202  1  0  0    500.000000   2.02611   0.00100  -2.02611  -13980.050       0.000  0.000000000 -0.000145000 -0.999999989
    63        6201  1  0  0    500.000000   2.02611   0.00100  -2.02611   13980.050       0.000  0.000000000 -0.000145000  0.999999989
 
#IN        6301   1   0   0   500.000000     0.000000    -0.072500   499.999995   0.00100   0.00100      0.00100
#IN        6302   1   0   0   500.000000     0.000000    -0.072500  -499.999995   0.00100   0.00100      0.00100
    64        6302  1  0  0    500.000000   2.02611   0.00100  -2.02611  -13980.050       0.000  0.000000000 -0.000145000 -0.999999989
    64        6301  1  0  0    500.000000   2.02611   0.00100  -2.02611   13980.050       0.000  0.000000000 -0.000145000  0.999999989
 
#IN        6401   1   0   0   500.000000     0.000000    -0.072500   499.999995   0.00100   0.00100      0.00100
#IN        6402   1   0   0   500.000000     0.000000    -0.072500  -499.999995   0.00100   0.00100      0.00100
    65        6402  1  0  0    500.000000   2.02611   0.00100  -2.02611  -13980.050       0.000  0.000000000 -0.000145000 -0.999999989
    65        6401  1  0  0    500.000000   2.02611   0.00100  -2.02611   13980.050       0.000  0.000000000 -0.000145000  0.999999989
 
#IN        6501   1   0   0   500.000000     0.000000    -0.072500   499.999995   0.00100   0.00100      0.00100
#IN        6502   1   0   0   500.000000     0.000000    -0.072500  -499.999995   0.00100   0.00100      0.00100
    66        6502  1  0  0    500.000000   2.02611   0.00100  -2.02611  -13980.050       0.000  0.000000000 -0.000145000 -0.999999989
    66        6501  1  0  0    500.000000   2.02611   0.00100  -2.02611   13980.050       0.000  0.000000000 -0.000145000  0.999999989
 
#IN        6601   1   0   0   500.000000     0.000000    -0.072500   499.999995   0.00100   0.00100      0.00100
#IN        6602   1   0   0   500.000000     0.000000    -0.072500  -499.999995   0.00100   0.00100      0.00100
    67        6602  1  0  0    500.000000   2.02611   0.00100  -2.02611  -13980.050       0.000  0.000000000 -0.000145000 -0.999999989
    67        6601  1  0  0    500.000000   2.02611   0.00100  -2.02611   13980.050       0.000  0.000000000 -0.000145000  0.999999989
 
#IN        6701   1   0   0   500.000000     0.000000    -0.072500   499.999995   0.00100   0.00100      0.00100
#IN        6702   1   0   0   500.000000     0.000000    -0.072500  -499.999995   0.00100   0.00100      0.00100
    68        6702  1  0  0    500.000000   2.02611   0.00100  -2.02611  -13980.050       0.000  0.000000000 -0.000145000 -0.999999989
    68        6701  1  0  0    500.000000   2.02611   0.00100  -2.02611   13980.050       0.000  0.000000000 -0.000145000  0.999999989
 
#IN        6801   1   0   0   500.000000     0.000000    -0.072500   499.999995   0.00100   0.00100      0.00100
#IN        6802   1   0   0   500.000000     0.000000    -0.072500  -499.999995   0.00100   0.00100      0.00100
    69        6802  1  0  0    500.000000   2.02611   0.00100  -2.02611  -13980.050       0.000  0.000000000 -0.000145000 -0.999999989
    69        6801  1  0  0    500.000000   2.02611   0.00100  -2.02611   13980.050       0.000  0.000000000 -0.000145000  0.999999989
 
#IN        6901   1   0   0   500.000000     0.000000    -0.072500   499.999995   0.00100   0.00100      0.00100
#IN        6902   1   0   0   500.000000     0.000000    -0.072500  -499.999995   0.00100   0.00100      0.00100
    70        6902  1  0  0    500.000000   2.02611   0.00100  -2.02611  -13980.050       0.000  0.000000000 -0.000145000 -0.999999989
    70        6901  1  0  0    500.000000   2.02611   0.00100  -2.02611   13980.050       0.000  0.000000000 -0.000145000  0.999999989
 
#IN        7001   1   0   0   500.000000     0.000000    -0.072500   499.999995   0.00100   0.00100      0.00100
#IN        7002   1   0   0   500.000000     0.000000    -0.072500  -499.999995   0.00100   0.00100      0.00100
    71        7002  1  0  0    500.000000   2.02611   0.00100  -2.02611  -13980.050       0.000  0.000000000 -0.000145000 -0.999999989
    71        7001  1  0  0    500.000000   2.02611   0.00100  -2.02611   13980.050       0.000  0.000000000 -0.000145000  0.999999989
 
#IN        7101   1   0   0   500.000000     0.000000    -0.072500   499.999995   0.00100   0.00100      0.00100
#IN        7102   1   0   0   500.000000     0.000000    -0.072500  -499.999995   0.00100   0.00100      0.00100
    72        7102  1  0  0    500.000000   2.02611   0.00100  -2.02611  -13980.050       0.000  0.000000000 -0.000145000 -0.999999989
    72        7101  1  0  0    500.000000   2.02611   0.00100  -2.02611   13980.050       0.000  0.000000000 -0.000145000  0.999999989
 
#IN        7201   1   0   0   500.000000     0.000000    -0.072500   499.999995   0.00100   0.00100      0.00100
#IN        7202   1   0   0   500.000000     0.000000    -0.072500  -499.999995   0.00100   0.00100      0.00100
    73        7202  1  0  0    500.000000   2.02611   0.00100  -2.02611  -13980.050       0.000  0.000000000 -0.000145000 -0.999999989
    73        7201  1  0  0    500.000000   2.02611   0.00100  -2.02611   13980.050       0.000  0.000000000 -0.000145000  0.999999989
 
#IN        7301   1   0   0   500.000000     0.000000    -0.072500   499.999995   0.00100   0.00100      0.00100
#IN        7302   1   0   0   500.000000     0.000000    -0.072500  -499.999995   0.00100   0.00100      0.00100
    74        7302  1  0  0    500.000000   2.02611   0.00100  -2.02611  -13980.050       0.000  0.000000000 -0.000145000 -0.999999989
    74        7301  1  0  0    500.000000   2.02611   0.00100  -2.02611   13980.050       0.000  0.000000000 -0.000145000  0.999999989
 
#IN        7401   1   0   0   500.000000     0.000000    -0.072500   499.999995   0.00100   0.00100      0.00100
#IN        7402   1   0   0   500.000000     0.000000    -0.072500  -499.999995   0.00100   0.00100      0.00100
    75        7402  1  0  0    500.000000   2.02611   0.00100  -2.02611  -13980.050       0.000  0.000000000 -0.000145000 -0.999999989
    75        7401  1  0  0    500.000000   2.02611   0.00100  -2.02611   13980.050       0.000  0.000000000 -0.000145000  0.999999989
 
#IN        7501   1   0   0   500.000000     0.000000    -0.072500   499.999995   0.00100   0.00100      0.00100
#IN        7502   1   0   0   500.000000     0.000000    -0.072500  -499.999995   0.00100   0.00100      0.00100
    76        7502  1  0  0    500.000000   2.02611   0.00100  -2.02611  -13980.050       0.000  0.000000000 -0.000145000 -0.999999989
    76        7501  1  0  0    500.000000   2.02611   0.00100  -2.02611   13980.050       0.000  0.000000000 -0.000145000  0.999999989
 
#IN        7601   1   0   0   500.000000     0.000000    -0.072500   499.999995   0.00100   0.00100      0.00100
#IN        7602   1   0   0   500.000000     0.000000    -0.072500  -499.999995   0.00100   0.00100      0.00100
    77        7602  1  0  0    500.000000   2.02611   0.00100  -2.02611  -13980.050       0.000  0.000000000 -0.000145000 -0.999999989
    77        7601  1  0  0    500.000000   2.02611   0.00100  -2.02611   13980.050       0.000  0.000000000 -0.000145000  0.999999989
 
#IN        7701   1   0   0   500.000000     0.000000    -0.072500   499.999995   0.00100   0.00100      0.00100
#IN        7702   1   0   0   500.000000     0.000000    -0.072500  -499.999995   0.00100   0.00100      0.00100
    78        7702  1  0  0    500.000000   2.02611   0.00100  -2.02611  -13980.050       0.000  0.000000000 -0.000145000 -0.999999989
    78        7701  1  0  0    500.000000   2.02611   0.00100  -2.02611   13980.050       0.000  0.000000000 -0.000145000  0.999999989
 
#IN        7801   1   0   0   500.000000     0.000000    -0.072500   499.999995   0.00100   0.00100      0.00100
#IN        7802   1   0   0   500.000000     0.000000    -0.072500  -499.999995   0.00100   0.00100      0.00100
    79        7802  1  0  0    500.000000   2.02611   0.00100  -2.02611  -13980.050       0.000  0.000000000 -0.000145000 -0.999999989
    79        7801  1  0  0    500.000000   2.02611   0.00100  -2.02611   13980.050       0.000  0.000000000 -0.000145000  0.999999989
 
#IN        7901   1   0   0   500.000000     0.000000    -0.072500   499.999995   0.00100   0.00100      0.00100
#IN        7902   1   0   0   500.000000     0.000000    -0.072500  -499.999995   0.00100   0.00100      0.00100
    80        7902  1  0  0    500.000000   2.02611   0.00100  -2.02611  -13980.050       0.000  0.000000000 -0.000145000 -0.999999989
    80        7901  1  0  0    500.000000   2.02611   0.00100  -2.02611   13980.050       0.000  0.000000000 -0.000145000  0.999999989
 
#IN        8001   1   0   0   500.000000     0.000000    -0.072500   499.999995   0.00100   0.00100      0.00100
#IN        8002   1   0   0   500.000000     0.000000    -0.072500  -499.999995   0.00100   0.00100      0.00100
    81        8002  1  0  0    500.000000   2.02611   0.00100  -2.02611  -13980.050       0.000  0.000000000 -0.000145000 -0.999999989
    81        8001  1  0  0    500.000000   2.02611   0.00100  -2.02611   13980.050       0.000  0.000000000 -0.000145000  0.999999989
 
#IN        8101   1   0   0   500.000000     0.000000    -0.072500   499.999995   0.00100   0.00100      0.00100
#IN        8102   1   0   0   500.000000     0.000000    -0.072500  -499.999995   0.00100   0.00100      0.00100
    82        8102  1  0  0    500.000000   2.02611   0.00100  -2.02611  -13980.050       0.000  0.000000000 -0.000145000 -0.999999989
    82        8101  1  0  0    500.000000   2.02611   0.00100  -2.02611   13980.050       0.000  0.000000000 -0.000145000  0.999999989
 
#IN        8201   1   0   0   500.000000     0.000000    -0.072500   499.999995   0.00100   0.00100      0.00100
#IN        8202   1   0   0   500.000000     0.000000    -0.072500  -499.999995   0.00100   0.00100      0.00100
    83        8202  1  0  0    500.000000   2.02611   0.00100  -2.02611  -13980.050       0.000  0.000000000 -0.000145000 -0.999999989
    83        8201  1  0  0    500.000000   2.02611   0.00100  -2.02611   13980.050       0.000  0.000000000 -0.000145000  0.999999989
 
#IN        8301   1   0   0   500.000000     0.000000    -0.072500   499.999995   0.00100   0.00100      0.00100
#IN        8302   1   0   0   500.000000     0.000000    -0.072500  -499.999995   0.00100   0.00100      0.00100
    84        8302  1  0  0    500.000000   2.02611   0.00100  -2.02611  -13980.050       0.000  0.000000000 -0.000145000 -0.999999989
    84        8301  1  0  0    500.000000   2.02611   0.00100  -2.02611   13980.050       0.000  0.000000000 -0.000145000  0.999999989
 
#IN        8401   1   0   0   500.000000     0.000000    -0.072500   499.999995   0.00100   0.00100      0.00100
#IN        8402   1   0   0   500.000000     0.000000    -0.072500  -499.999995   0.00100   0.00100      0.00100
    85        8402  1  0  0    500.000000   2.02611   0.00100  -2.02611  -13980.050       0.000  0.000000000 -0.000145000 -0.999999989
    85        8401  1  0  0    500.000000   2.02611   0.00100  -2.02611   13980.050       0.000  0.000000000 -0.000145000  0.999999989
 
#IN        8501   1   0   0   500.000000     0.000000    -0.072500   499.999995   0.00100   0.00100      0.00100
#IN        8502   1   0   0   500.000000     0.000000    -0.072500  -499.999995   0.00100   0.00100      0.00100
    86        8502  1  0  0    500.000000   2.02611   0.00100  -2.02611  -13980.050       0.000  0.000000000 -0.000145000 -0.999999989
    86        8501  1  0  0    500.000000   2.02611   0.00100  -2.02611   13980.050       0.000  0.000000000 -0.000145000  0.999999989
 
#IN        8601   1   0   0   500.000000     0.000000    -0.072500   499.999995   0.00100   0.00100      0.00100
#IN        8602   1   0   0   500.000000     0.000000    -0.072500  -499.999995   0.00100   0.00100      0.00100
    87        8602  1  0  0    500.000000   2.02611   0.00100  -2.02611  -13980.050       0.000  0.000000000 -0.000145000 -0.999999989
    87        8601  1  0  0    500.000000   2.02611   0.00100  -2.02611   13980.050       0.000  0.000000000 -0.000145000  0.999999989
 
#IN        8701   1   0   0   500.000000     0.000000    -0.072500   499.999995   0.00100   0.00100      0.00100
#IN        8702   1   0   0   500.000000     0.000000    -0.072500  -499.999995   0.00100   0.00100      0.00100
    88        8702  1  0  0    500.000000   2.02611   0.00100  -2.02611  -13980.050       0.000  0.000000000 -0.000145000 -0.999999989
    88        8701  1  0  0    500.000000   2.02611   0.00100  -2.02611   13980.050       0.000  0.000000000 -0.000145000  0.999999989
 
#IN        8801   1   0   0   500.000000     0.000000    -0.072500   499.999995   0.00100   0.00100      0.00100
#IN        8802   1   0   0   500.000000     0.000000    -0.072500  -499.999995   0.00100   0.00100      0.00100
    89        8802  1  0  0    500.000000   2.02611   0.00100  -2.02611  -13980.050       0.000  0.000000000 -0.000145000 -0.999999989
    89        8801  1  0  0    500.000000   2.02611   0.00100  -2.02611   13980.050       0.000  0.000000000 -0.000145000  0.999999989
 
#IN        8901   1   0   0   500.000000     0.000000    -0.072500   499.999995   0.00100   0.00100      0.00100
#IN        8902   1   0   0   500.000000     0.000000    -0.072500  -499.999995   0.00100   0.00100      0.00100
    90        8902  1  0  0    500.000000   2.02611   0.00100  -2.02611  -13980.050       0.000  0.000000000 -0.000145000 -0.999999989
    90        8901  1  0  0    500.000000   2.02611   0.00100  -2.02611   13980.050       0.000  0.000000000 -0.000145000  0.999999989
 
#IN        9001   1   0   0   500.000000     0.000000    -0.072500   499.999995   0.00100   0.00100      0.00100
#IN        9002   1   0   0   500.000000     0.000000    -0.072500  -499.999995   0.00100   0.00100      0.00100
    91        9002  1  0  0    500.000000   2.02611   0.00100  -2.02611  -13980.050       0.000  0.000000000 -0.000145000 -0.999999989
    91        9001  1  0  0    500.000000   2.02611   0.00100  -2.02611   13980.050       0.000  0.000000000 -0.000145000  0.999999989
 
#IN        9101   1   0   0   500.000000     0.000000    -0.072500   499.999995   0.00100   0.00100      0.00100
#IN        9102   1   0   0   500.000000     0.000000    -0.072500  -499.999995   0.00100   0.00100      0.00100
    92        9102  1  0  0    500.000000   2.02611   0.00100  -2.02611  -13980.050       0.000  0.000000000 -0.000145000 -0.999999989
    92        9101  1  0  0    500.000000   2.02611   0.00100  -2.02611   13980.050       0.000  0.000000000 -0.000145000  0.999999989
 
#IN        9201   1   0   0   500.000000     0.000000    -0.072500   499.999995   0.00100   0.00100      0.00100
#IN        9202   1   0   0   500.000000     0.000000    -0.072500  -499.999995   0.00100   0.00100      0.00100
    93        9202  1  0  0    500.000000   2.02611   0.00100  -2.02611  -13980.050       0.000  0.000000000 -0.000145000 -0.999999989
    93        9201  1  0  0    500.000000   2.02611   0.00100  -2.02611   13980.050       0.000  0.000000000 -0.000145000  0.999999989
 
#IN        9301   1   0   0   500.000000     0.000000    -0.072500   499.999995   0.00100   0.00100      0.00100
#IN        9302   1   0   0   500.000000     0.000000    -0.072500  -499.999995   0.00100   0.00100      0.00100
    94        9302  1  0  0    500.000000   2.02611   0.00100  -2.02611  -13980.050       0.000  0.000000000 -0.000145000 -0.999999989
    94        9301  1  0  0    500.000000   2.02611   0.00100  -2.02611   13980.050       0.000  0.000000000 -0.000145000  0.999999989
 
#IN        9401   1   0   0   500.000000     0.000000    -0.072500   499.999995   0.00100   0.00100      0.00100
#IN        9402   1   0   0   500.000000     0.000000    -0.072500  -499.999995   0.00100   0.00100      0.00100
    95        9402  1  0  0    500.000000   2.02611   0.00100  -2.02611  -13980.050       0.000  0.000000000 -0.000145000 -0.999999989
    95        9401  1  0  0    500.000000   2.02611   0.00100  -2.02611   13980.050       0.000  0.000000000 -0.000145000  0.999999989
 
#IN        9501   1   0   0   500.000000     0.000000    -0.072500   499.999995   0.00100   0.00100      0.00100
#IN        9502   1   0   0   500.000000     0.000000    -0.072500  -499.999995   0.00100   0.00100      0.00100
    96        9502  1  0  0    500.000000   2.02611   0.00100  -2.02611  -13980.050       0.000  0.000000000 -0.000145000 -0.999999989
    96        9501  1  0  0    500.000000   2.02611   0.00100  -2.02611   13980.050       0.000  0.000000000 -0.000145000  0.999999989
 
#IN        9601   1   0   0   500.000000     0.000000    -0.072500   499.999995   0.00100   0.00100      0.00100
#IN        9602   1   0   0   500.000000     0.000000    -0.072500  -499.999995   0.00100   0.00100      0.00100
    97        9602  1  0  0    500.000000   2.02611   0.00100  -2.02611  -13980.050       0.000  0.000000000 -0.000145000 -0.999999989
    97        9601  1  0  0    500.000000   2.02611   0.00100  -2.02611   13980.050       0.000  0.000000000 -0.000145000  0.999999989
 
#IN        9701   1   0   0   500.000000     0.000000    -0.072500   499.999995   0.00100   0.00100      0.00100
#IN        9702   1   0   0   500.000000     0.000000    -0.072500  -499.999995   0.00100   0.00100      0.00100
    98        9702  1  0  0    500.000000   2.02611   0.00100  -2.02611  -13980.050       0.000  0.000000000 -0.000145000 -0.999999989
    98        9701  1  0  0    500.000000   2.02611   0.00100  -2.02611   13980.050       0.000  0.000000000 -0.000145000  0.999999989
 
#IN        9801   1   0   0   500.000000     0.000000    -0.072500   499.999995   0.00100   0.00100      0.00100
#IN        9802   1   0   0   500.000000     0.000000    -0.072500  -499.999995   0.00100   0.00100      0.00100
    99        9802  1  0  0    500.000000   2.02611   0.00100  -2.02611  -13980.050       0.000  0.000000000 -0.000145000 -0.999999989
    99        9801  1  0  0    500.000000   2.02611   0.00100  -2.02611   13980.050       0.000  0.000000000 -0.000145000  0.999999989
 
#IN        9901   1   0   0   500.000000     0.000000    -0.072500   499.999995   0.00100   0.00100      0.00100
#IN        9902   1   0   0   500.000000     0.000000    -0.072500  -499.999995   0.00100   0.00100      0.00100
   100        9902  1  0  0    500.000000   2.02611   0.00100  -2.02611  -13980.050       0.000  0.000000000 -0.000145000 -0.999999989
   100        9901  1  0  0    500.000000   2.02611   0.00100  -2.02611   13980.050       0.000  0.000000000 -0.000145000  0.999999989
 
